%YAML 1.1
%TAG !u! tag:unity3d.com,2011:
--- !u!74 &7400000
AnimationClip:
  m_ObjectHideFlags: 0
  m_CorrespondingSourceObject: {fileID: 0}
  m_PrefabInstance: {fileID: 0}
  m_PrefabAsset: {fileID: 0}
  m_Name: EnnemyBullet
  serializedVersion: 6
  m_Legacy: 0
  m_Compressed: 0
  m_UseHighQualityCurve: 1
  m_RotationCurves: []
  m_CompressedRotationCurves: []
  m_EulerCurves: []
  m_PositionCurves: []
  m_ScaleCurves: []
  m_FloatCurves: []
  m_PPtrCurves:
  - curve:
    - time: 0
      value: {fileID: 3305532829244979730, guid: d8a1cef80643848858af4ca836bcd6fc,
        type: 3}
    - time: 0.083333336
      value: {fileID: 3225378763630611371, guid: d8a1cef80643848858af4ca836bcd6fc,
        type: 3}
    - time: 0.16666667
      value: {fileID: 7623941341406939654, guid: d8a1cef80643848858af4ca836bcd6fc,
        type: 3}
    - time: 0.25
      value: {fileID: -1893702640338498949, guid: d8a1cef80643848858af4ca836bcd6fc,
        type: 3}
    - time: 0.33333334
      value: {fileID: 1459248703195793451, guid: d8a1cef80643848858af4ca836bcd6fc,
        type: 3}
    - time: 0.43333334
      value: {fileID: -2644613992743969920, guid: d8a1cef80643848858af4ca836bcd6fc,
        type: 3}
    - time: 0.46666667
      value: {fileID: -2957410286126355752, guid: d8a1cef80643848858af4ca836bcd6fc,
        type: 3}
    - time: 0.56666666
      value: {fileID: 4607357085940516813, guid: d8a1cef80643848858af4ca836bcd6fc,
        type: 3}
    - time: 0.65
      value: {fileID: -4295844261298381654, guid: d8a1cef80643848858af4ca836bcd6fc,
        type: 3}
    - time: 0.73333335
      value: {fileID: -2523341768347925134, guid: d8a1cef80643848858af4ca836bcd6fc,
        type: 3}
    - time: 0.81666666
      value: {fileID: -827914198499580368, guid: d8a1cef80643848858af4ca836bcd6fc,
        type: 3}
    - time: 0.9
      value: {fileID: 4785766656829701877, guid: d8a1cef80643848858af4ca836bcd6fc,
        type: 3}
    attribute: m_Sprite
    path: 
    classID: 212
    script: {fileID: 0}
  m_SampleRate: 60
  m_WrapMode: 0
  m_Bounds:
    m_Center: {x: 0, y: 0, z: 0}
    m_Extent: {x: 0, y: 0, z: 0}
  m_ClipBindingConstant:
    genericBindings:
    - serializedVersion: 2
      path: 0
      attribute: 0
      script: {fileID: 0}
      typeID: 212
      customType: 23
      isPPtrCurve: 1
    pptrCurveMapping:
    - {fileID: 3305532829244979730, guid: d8a1cef80643848858af4ca836bcd6fc, type: 3}
    - {fileID: 3225378763630611371, guid: d8a1cef80643848858af4ca836bcd6fc, type: 3}
    - {fileID: 7623941341406939654, guid: d8a1cef80643848858af4ca836bcd6fc, type: 3}
    - {fileID: -1893702640338498949, guid: d8a1cef80643848858af4ca836bcd6fc, type: 3}
    - {fileID: 1459248703195793451, guid: d8a1cef80643848858af4ca836bcd6fc, type: 3}
    - {fileID: -2644613992743969920, guid: d8a1cef80643848858af4ca836bcd6fc, type: 3}
    - {fileID: -2957410286126355752, guid: d8a1cef80643848858af4ca836bcd6fc, type: 3}
    - {fileID: 4607357085940516813, guid: d8a1cef80643848858af4ca836bcd6fc, type: 3}
    - {fileID: -4295844261298381654, guid: d8a1cef80643848858af4ca836bcd6fc, type: 3}
    - {fileID: -2523341768347925134, guid: d8a1cef80643848858af4ca836bcd6fc, type: 3}
    - {fileID: -827914198499580368, guid: d8a1cef80643848858af4ca836bcd6fc, type: 3}
    - {fileID: 4785766656829701877, guid: d8a1cef80643848858af4ca836bcd6fc, type: 3}
  m_AnimationClipSettings:
    serializedVersion: 2
    m_AdditiveReferencePoseClip: {fileID: 0}
    m_AdditiveReferencePoseTime: 0
    m_StartTime: 0
    m_StopTime: 0.9166666
    m_OrientationOffsetY: 0
    m_Level: 0
    m_CycleOffset: 0
    m_HasAdditiveReferencePose: 0
    m_LoopTime: 1
    m_LoopBlend: 0
    m_LoopBlendOrientation: 0
    m_LoopBlendPositionY: 0
    m_LoopBlendPositionXZ: 0
    m_KeepOriginalOrientation: 0
    m_KeepOriginalPositionY: 1
    m_KeepOriginalPositionXZ: 0
    m_HeightFromFeet: 0
    m_Mirror: 0
  m_EditorCurves: []
  m_EulerEditorCurves: []
  m_HasGenericRootTransform: 0
  m_HasMotionFloatCurves: 0
  m_Events: []
