%YAML 1.1
%TAG !u! tag:unity3d.com,2011:
--- !u!74 &7400000
AnimationClip:
  m_ObjectHideFlags: 0
  m_CorrespondingSourceObject: {fileID: 0}
  m_PrefabInstance: {fileID: 0}
  m_PrefabAsset: {fileID: 0}
  m_Name: Player
  serializedVersion: 6
  m_Legacy: 0
  m_Compressed: 0
  m_UseHighQualityCurve: 1
  m_RotationCurves: []
  m_CompressedRotationCurves: []
  m_EulerCurves: []
  m_PositionCurves: []
  m_ScaleCurves: []
  m_FloatCurves: []
  m_PPtrCurves:
  - curve:
    - time: 0
      value: {fileID: 4200235039693274450, guid: f53861aab05d9452198bdc3d3b8c6de1,
        type: 3}
    - time: 0.033333335
      value: {fileID: 1859349500567388860, guid: f53861aab05d9452198bdc3d3b8c6de1,
        type: 3}
    - time: 0.06666667
      value: {fileID: 2187912007618995215, guid: f53861aab05d9452198bdc3d3b8c6de1,
        type: 3}
    - time: 0.1
      value: {fileID: -1498863550572066687, guid: f53861aab05d9452198bdc3d3b8c6de1,
        type: 3}
    - time: 0.11666667
      value: {fileID: -5800254863540584415, guid: f53861aab05d9452198bdc3d3b8c6de1,
        type: 3}
    - time: 0.15
      value: {fileID: 6210395809833742475, guid: f53861aab05d9452198bdc3d3b8c6de1,
        type: 3}
    - time: 0.18333334
      value: {fileID: 6302109364165764099, guid: f53861aab05d9452198bdc3d3b8c6de1,
        type: 3}
    - time: 0.21666667
      value: {fileID: -8382106095467908493, guid: f53861aab05d9452198bdc3d3b8c6de1,
        type: 3}
    - time: 0.25
      value: {fileID: -890723426822226533, guid: f53861aab05d9452198bdc3d3b8c6de1,
        type: 3}
    - time: 0.28333333
      value: {fileID: 7746362069908728069, guid: f53861aab05d9452198bdc3d3b8c6de1,
        type: 3}
    - time: 0.31666666
      value: {fileID: 8573733671001792597, guid: f53861aab05d9452198bdc3d3b8c6de1,
        type: 3}
    - time: 0.35
      value: {fileID: -3871672346223271001, guid: f53861aab05d9452198bdc3d3b8c6de1,
        type: 3}
    - time: 0.36666667
      value: {fileID: -9135411442110672724, guid: f53861aab05d9452198bdc3d3b8c6de1,
        type: 3}
    - time: 0.4
      value: {fileID: 3630696708772945465, guid: f53861aab05d9452198bdc3d3b8c6de1,
        type: 3}
    - time: 0.43333334
      value: {fileID: 4192492331404241130, guid: f53861aab05d9452198bdc3d3b8c6de1,
        type: 3}
    - time: 0.46666667
      value: {fileID: -5737084858692519812, guid: f53861aab05d9452198bdc3d3b8c6de1,
        type: 3}
    attribute: m_Sprite
    path: 
    classID: 212
    script: {fileID: 0}
  m_SampleRate: 60
  m_WrapMode: 0
  m_Bounds:
    m_Center: {x: 0, y: 0, z: 0}
    m_Extent: {x: 0, y: 0, z: 0}
  m_ClipBindingConstant:
    genericBindings:
    - serializedVersion: 2
      path: 0
      attribute: 0
      script: {fileID: 0}
      typeID: 212
      customType: 23
      isPPtrCurve: 1
    pptrCurveMapping:
    - {fileID: 4200235039693274450, guid: f53861aab05d9452198bdc3d3b8c6de1, type: 3}
    - {fileID: 1859349500567388860, guid: f53861aab05d9452198bdc3d3b8c6de1, type: 3}
    - {fileID: 2187912007618995215, guid: f53861aab05d9452198bdc3d3b8c6de1, type: 3}
    - {fileID: -1498863550572066687, guid: f53861aab05d9452198bdc3d3b8c6de1, type: 3}
    - {fileID: -5800254863540584415, guid: f53861aab05d9452198bdc3d3b8c6de1, type: 3}
    - {fileID: 6210395809833742475, guid: f53861aab05d9452198bdc3d3b8c6de1, type: 3}
    - {fileID: 6302109364165764099, guid: f53861aab05d9452198bdc3d3b8c6de1, type: 3}
    - {fileID: -8382106095467908493, guid: f53861aab05d9452198bdc3d3b8c6de1, type: 3}
    - {fileID: -890723426822226533, guid: f53861aab05d9452198bdc3d3b8c6de1, type: 3}
    - {fileID: 7746362069908728069, guid: f53861aab05d9452198bdc3d3b8c6de1, type: 3}
    - {fileID: 8573733671001792597, guid: f53861aab05d9452198bdc3d3b8c6de1, type: 3}
    - {fileID: -3871672346223271001, guid: f53861aab05d9452198bdc3d3b8c6de1, type: 3}
    - {fileID: -9135411442110672724, guid: f53861aab05d9452198bdc3d3b8c6de1, type: 3}
    - {fileID: 3630696708772945465, guid: f53861aab05d9452198bdc3d3b8c6de1, type: 3}
    - {fileID: 4192492331404241130, guid: f53861aab05d9452198bdc3d3b8c6de1, type: 3}
    - {fileID: -5737084858692519812, guid: f53861aab05d9452198bdc3d3b8c6de1, type: 3}
  m_AnimationClipSettings:
    serializedVersion: 2
    m_AdditiveReferencePoseClip: {fileID: 0}
    m_AdditiveReferencePoseTime: 0
    m_StartTime: 0
    m_StopTime: 0.48333335
    m_OrientationOffsetY: 0
    m_Level: 0
    m_CycleOffset: 0
    m_HasAdditiveReferencePose: 0
    m_LoopTime: 1
    m_LoopBlend: 0
    m_LoopBlendOrientation: 0
    m_LoopBlendPositionY: 0
    m_LoopBlendPositionXZ: 0
    m_KeepOriginalOrientation: 0
    m_KeepOriginalPositionY: 1
    m_KeepOriginalPositionXZ: 0
    m_HeightFromFeet: 0
    m_Mirror: 0
  m_EditorCurves: []
  m_EulerEditorCurves: []
  m_HasGenericRootTransform: 0
  m_HasMotionFloatCurves: 0
  m_Events: []
